…
-   I could split into 7 data frames, then run the modelling 7 times on
    each one but that is a lot of code duplication plus the modelling
    was to be run on 4 severity categories per assessment scale.

-   I could split into 7 data frames, then pass a <u>list of those data
    frames</u> into `map()` with a self-defined function with the
    modelling functions. But wait, a list of data frames… nest() creates
    a <u>list-column of data frames</u>…

# 12 Pre-processing data frames that need to have uneven widths

    # Let's have a quick look at the data
    print(activation_final, n = 5)

    ## # A tibble: 169,563 × 28
    ##   nocc_episode_identifier severity_category assessment_scale item1 item2 item3
    ##   <chr>                   <chr>             <chr>            <int> <int> <int>
    ## 1 107183                  mild              HoNOS                1     0     0
    ## 2 183775                  mild              HoNOS                0     0     0
    ## 3 100797                  severe            HoNOS                1     2     3
    ## 4 100135                  subclinical       HoNOS                0     0     1
    ## 5 100818                  severe            HoNOS                2     0     0
    ## # ℹ 169,558 more rows
    ## # ℹ 22 more variables: item4 <int>, item5 <int>, item6 <int>, item7 <int>,
    ## #   item8 <int>, item9 <int>, item10 <int>, item11 <int>, item12 <int>,
    ## #   item13 <int>, item14 <int>, item15 <int>, item16 <int>, item17 <int>,
    ## #   item18 <int>, item19 <int>, item20 <int>, item21 <int>, item22 <int>,
    ## #   item23 <int>, item24 <int>, item25 <int>

    # just to show what nest() does
    nested_example <- activation_final %>%
      nest(., .by = c(assessment_scale, severity_category), .key = "nested_data")

    print(nested_example, n = 5)

    ## # A tibble: 28 × 3
    ##   assessment_scale severity_category nested_data           
    ##   <chr>            <chr>             <list>                
    ## 1 HoNOS            mild              <tibble [13,648 × 26]>
    ## 2 HoNOS            severe            <tibble [33,087 × 26]>
    ## 3 HoNOS            subclinical       <tibble [2,591 × 26]> 
    ## 4 HoNOS            moderate          <tibble [15,846 × 26]>
    ## 5 K10              non-clinical      <tibble [8,448 × 26]> 
    ## # ℹ 23 more rows
…
    print(nested_example)

    ## # A tibble: 28 × 3
    ##    assessment_scale severity_category nested_data           
    ##    <chr>            <chr>             <list>                
    ##  1 HoNOS            mild              <tibble [13,648 × 13]>
    ##  2 HoNOS            severe            <tibble [33,087 × 13]>
    ##  3 HoNOS            subclinical       <tibble [2,591 × 13]> 
    ##  4 HoNOS            moderate          <tibble [15,846 × 13]>
    ##  5 K10              non-clinical      <tibble [8,448 × 11]> 
    ##  6 K10              severe            <tibble [29,191 × 11]>
    ##  7 K10              moderate          <tibble [6,370 × 11]> 
    ##  8 K10              mild              <tibble [5,159 × 11]> 
    ##  9 HoNOS65          subclinical       <tibble [333 × 13]>   
    ## 10 HoNOS65          mild              <tibble [2,416 × 13]> 
    ## # ℹ 18 more rows

    nested_example %>%
      mutate(no_columns = map_vec(nested_data, ncol))

    ## # A tibble: 28 × 4
    ##    assessment_scale severity_category nested_data            no_columns
    ##    <chr>            <chr>             <list>                      <int>
    ##  1 HoNOS            mild              <tibble [13,648 × 13]>         13
    ##  2 HoNOS            severe            <tibble [33,087 × 13]>         13
    ##  3 HoNOS            subclinical       <tibble [2,591 × 13]>          13
    ##  4 HoNOS            moderate          <tibble [15,846 × 13]>         13
    ##  5 K10              non-clinical      <tibble [8,448 × 11]>          11
    ##  6 K10              severe            <tibble [29,191 × 11]>         11
    ##  7 K10              moderate          <tibble [6,370 × 11]>          11
    ##  8 K10              mild              <tibble [5,159 × 11]>          11
    ##  9 HoNOS65          subclinical       <tibble [333 × 13]>            13
    ## 10 HoNOS65          mild              <tibble [2,416 × 13]>          13
    ## # ℹ 18 more rows
…
